<!DOCTYPE SceneVersion>
<SceneVersion VersionName="Run" ID="1">
 <Element Name="Drawing" ID="1" Folder="Drawing"/>
 <Element Name="Cat_Run" ID="3" Folder="Cat_Run">
  <Drawing Key="" Name="6" Version="1"/>
  <Drawing Key="" Name="1" Version="1"/>
  <Drawing Key="" Name="10" Version="1"/>
  <Drawing Key="" Name="11" Version="1"/>
  <Drawing Key="" Name="2" Version="1"/>
  <Drawing Key="" Name="3" Version="1"/>
  <Drawing Key="" Name="4" Version="1"/>
  <Drawing Key="" Name="5" Version="1"/>
  <Drawing Key="" Name="7" Version="1"/>
  <Drawing Key="" Name="8" Version="1"/>
  <Drawing Key="" Name="9" Version="1"/>
 </Element>
</SceneVersion>
