<!DOCTYPE SceneVersion>
<SceneVersion VersionName="SuperTrickOLD" ID="1">
 <Element Name="KickFlip2" ID="23" Folder="KickFlip2">
  <Drawing Key="" Name="26" Version="1"/>
  <Drawing Key="" Name="1" Version="1"/>
  <Drawing Key="" Name="10" Version="1"/>
  <Drawing Key="" Name="11" Version="1"/>
  <Drawing Key="" Name="12" Version="1"/>
  <Drawing Key="" Name="13" Version="1"/>
  <Drawing Key="" Name="14" Version="1"/>
  <Drawing Key="" Name="15" Version="1"/>
  <Drawing Key="" Name="16" Version="1"/>
  <Drawing Key="" Name="17" Version="1"/>
  <Drawing Key="" Name="18" Version="1"/>
  <Drawing Key="" Name="19" Version="1"/>
  <Drawing Key="" Name="2" Version="1"/>
  <Drawing Key="" Name="20" Version="1"/>
  <Drawing Key="" Name="21" Version="1"/>
  <Drawing Key="" Name="22" Version="1"/>
  <Drawing Key="" Name="23" Version="1"/>
  <Drawing Key="" Name="24" Version="1"/>
  <Drawing Key="" Name="25" Version="1"/>
  <Drawing Key="" Name="27" Version="1"/>
  <Drawing Key="" Name="28" Version="1"/>
  <Drawing Key="" Name="29" Version="1"/>
  <Drawing Key="" Name="3" Version="1"/>
  <Drawing Key="" Name="30" Version="1"/>
  <Drawing Key="" Name="31" Version="1"/>
  <Drawing Key="" Name="32" Version="1"/>
  <Drawing Key="" Name="33" Version="1"/>
  <Drawing Key="" Name="34" Version="1"/>
  <Drawing Key="" Name="35" Version="1"/>
  <Drawing Key="" Name="36" Version="1"/>
  <Drawing Key="" Name="37" Version="1"/>
  <Drawing Key="" Name="38" Version="1"/>
  <Drawing Key="" Name="39" Version="1"/>
  <Drawing Key="" Name="4" Version="1"/>
  <Drawing Key="" Name="5" Version="1"/>
  <Drawing Key="" Name="6" Version="1"/>
  <Drawing Key="" Name="7" Version="1"/>
  <Drawing Key="" Name="8" Version="1"/>
  <Drawing Key="" Name="9" Version="1"/>
 </Element>
 <Element Name="GrabTrick" ID="25" Folder="GrabTrick.25">
  <Drawing Key="" Name="26" Version="1"/>
  <Drawing Key="" Name="1" Version="1"/>
  <Drawing Key="" Name="10" Version="1"/>
  <Drawing Key="" Name="11" Version="1"/>
  <Drawing Key="" Name="12" Version="1"/>
  <Drawing Key="" Name="13" Version="1"/>
  <Drawing Key="" Name="14" Version="1"/>
  <Drawing Key="" Name="15" Version="1"/>
  <Drawing Key="" Name="16" Version="1"/>
  <Drawing Key="" Name="17" Version="1"/>
  <Drawing Key="" Name="18" Version="1"/>
  <Drawing Key="" Name="19" Version="1"/>
  <Drawing Key="" Name="2" Version="1"/>
  <Drawing Key="" Name="20" Version="1"/>
  <Drawing Key="" Name="21" Version="1"/>
  <Drawing Key="" Name="22" Version="1"/>
  <Drawing Key="" Name="23" Version="1"/>
  <Drawing Key="" Name="24" Version="1"/>
  <Drawing Key="" Name="25" Version="1"/>
  <Drawing Key="" Name="27" Version="1"/>
  <Drawing Key="" Name="28" Version="1"/>
  <Drawing Key="" Name="29" Version="1"/>
  <Drawing Key="" Name="3" Version="1"/>
  <Drawing Key="" Name="30" Version="1"/>
  <Drawing Key="" Name="31" Version="1"/>
  <Drawing Key="" Name="32" Version="1"/>
  <Drawing Key="" Name="33" Version="1"/>
  <Drawing Key="" Name="34" Version="1"/>
  <Drawing Key="" Name="35" Version="1"/>
  <Drawing Key="" Name="36" Version="1"/>
  <Drawing Key="" Name="4" Version="1"/>
  <Drawing Key="" Name="5" Version="1"/>
  <Drawing Key="" Name="6" Version="1"/>
  <Drawing Key="" Name="7" Version="1"/>
  <Drawing Key="" Name="8" Version="1"/>
  <Drawing Key="" Name="9" Version="1"/>
 </Element>
 <Element Name="GrabTrick" ID="26" Folder="GrabTrick.26">
  <Drawing Key="" Name="17" Version="1"/>
  <Drawing Key="" Name="15" Version="1"/>
  <Drawing Key="" Name="16" Version="1"/>
  <Drawing Key="" Name="11" Version="1"/>
  <Drawing Key="" Name="14" Version="1"/>
  <Drawing Key="" Name="12" Version="1"/>
  <Drawing Key="" Name="1" Version="1"/>
  <Drawing Key="" Name="10" Version="1"/>
  <Drawing Key="" Name="13" Version="1"/>
  <Drawing Key="" Name="18" Version="1"/>
  <Drawing Key="" Name="19" Version="1"/>
  <Drawing Key="" Name="2" Version="1"/>
  <Drawing Key="" Name="20" Version="1"/>
  <Drawing Key="" Name="21" Version="1"/>
  <Drawing Key="" Name="22" Version="1"/>
  <Drawing Key="" Name="23" Version="1"/>
  <Drawing Key="" Name="24" Version="1"/>
  <Drawing Key="" Name="25" Version="1"/>
  <Drawing Key="" Name="26" Version="1"/>
  <Drawing Key="" Name="27" Version="1"/>
  <Drawing Key="" Name="28" Version="1"/>
  <Drawing Key="" Name="29" Version="1"/>
  <Drawing Key="" Name="3" Version="1"/>
  <Drawing Key="" Name="30" Version="1"/>
  <Drawing Key="" Name="31" Version="1"/>
  <Drawing Key="" Name="32" Version="1"/>
  <Drawing Key="" Name="33" Version="1"/>
  <Drawing Key="" Name="34" Version="1"/>
  <Drawing Key="" Name="35" Version="1"/>
  <Drawing Key="" Name="36" Version="1"/>
  <Drawing Key="" Name="4" Version="1"/>
  <Drawing Key="" Name="5" Version="1"/>
  <Drawing Key="" Name="6" Version="1"/>
  <Drawing Key="" Name="7" Version="1"/>
  <Drawing Key="" Name="8" Version="1"/>
  <Drawing Key="" Name="9" Version="1"/>
  <Drawing Key="" Name="37" Version="1"/>
  <Drawing Key="" Name="38" Version="1"/>
  <Drawing Key="" Name="39" Version="1"/>
  <Drawing Key="" Name="40" Version="1"/>
  <Drawing Key="" Name="41" Version="1"/>
  <Drawing Key="" Name="42" Version="1"/>
  <Drawing Key="" Name="43" Version="1"/>
  <Drawing Key="" Name="44" Version="1"/>
  <Drawing Key="" Name="45" Version="1"/>
  <Drawing Key="" Name="46" Version="1"/>
  <Drawing Key="" Name="47" Version="1"/>
  <Drawing Key="" Name="48" Version="1"/>
  <Drawing Key="" Name="49" Version="1"/>
  <Drawing Key="" Name="50" Version="1"/>
  <Drawing Key="" Name="51" Version="1"/>
  <Drawing Key="" Name="52" Version="1"/>
  <Drawing Key="" Name="53" Version="1"/>
  <Drawing Key="" Name="54" Version="1"/>
  <Drawing Key="" Name="55" Version="1"/>
  <Drawing Key="" Name="56" Version="1"/>
  <Drawing Key="" Name="57" Version="1"/>
  <Drawing Key="" Name="58" Version="1"/>
  <Drawing Key="" Name="59" Version="1"/>
  <Drawing Key="" Name="60" Version="1"/>
  <Drawing Key="" Name="61" Version="1"/>
  <Drawing Key="" Name="62" Version="1"/>
  <Drawing Key="" Name="63" Version="1"/>
  <Drawing Key="" Name="64" Version="1"/>
  <Drawing Key="" Name="65" Version="1"/>
  <Drawing Key="" Name="66" Version="1"/>
  <Drawing Key="" Name="67" Version="1"/>
  <Drawing Key="" Name="68" Version="1"/>
  <Drawing Key="" Name="69" Version="1"/>
  <Drawing Key="" Name="70" Version="1"/>
  <Drawing Key="" Name="71" Version="1"/>
  <Drawing Key="" Name="72" Version="1"/>
  <Drawing Key="" Name="73" Version="1"/>
  <Drawing Key="" Name="74" Version="1"/>
  <Drawing Key="" Name="75" Version="1"/>
  <Drawing Key="" Name="76" Version="1"/>
  <Drawing Key="" Name="77" Version="1"/>
  <Drawing Key="" Name="78" Version="1"/>
  <Drawing Key="" Name="79" Version="1"/>
  <Drawing Key="" Name="80" Version="1"/>
  <Drawing Key="" Name="81" Version="1"/>
  <Drawing Key="" Name="82" Version="1"/>
  <Drawing Key="" Name="83" Version="1"/>
  <Drawing Key="" Name="84" Version="1"/>
  <Drawing Key="" Name="85" Version="1"/>
  <Drawing Key="" Name="86" Version="1"/>
  <Drawing Key="" Name="87" Version="1"/>
  <Drawing Key="" Name="88" Version="1"/>
  <Drawing Key="" Name="89" Version="1"/>
  <Drawing Key="" Name="90" Version="1"/>
  <Drawing Key="" Name="91" Version="1"/>
  <Drawing Key="" Name="92" Version="1"/>
  <Drawing Key="" Name="93" Version="1"/>
  <Drawing Key="" Name="94" Version="1"/>
  <Drawing Key="" Name="95" Version="1"/>
  <Drawing Key="" Name="96" Version="1"/>
  <Drawing Key="" Name="97" Version="1"/>
  <Drawing Key="" Name="98" Version="1"/>
  <Drawing Key="" Name="99" Version="1"/>
  <Drawing Key="" Name="100" Version="1"/>
  <Drawing Key="" Name="101" Version="1"/>
  <Drawing Key="" Name="102" Version="1"/>
  <Drawing Key="" Name="103" Version="1"/>
  <Drawing Key="" Name="104" Version="1"/>
  <Drawing Key="" Name="105" Version="1"/>
  <Drawing Key="" Name="106" Version="1"/>
  <Drawing Key="" Name="107" Version="1"/>
  <Drawing Key="" Name="108" Version="1"/>
  <Drawing Key="" Name="109" Version="1"/>
  <Drawing Key="" Name="110" Version="1"/>
  <Drawing Key="" Name="111" Version="1"/>
  <Drawing Key="" Name="112" Version="1"/>
  <Drawing Key="" Name="113" Version="1"/>
  <Drawing Key="" Name="114" Version="1"/>
  <Drawing Key="" Name="115" Version="1"/>
  <Drawing Key="" Name="116" Version="1"/>
  <Drawing Key="" Name="117" Version="1"/>
  <Drawing Key="" Name="118" Version="1"/>
  <Drawing Key="" Name="119" Version="1"/>
  <Drawing Key="" Name="120" Version="1"/>
  <Drawing Key="" Name="121" Version="1"/>
  <Drawing Key="" Name="122" Version="1"/>
  <Drawing Key="" Name="123" Version="1"/>
  <Drawing Key="" Name="124" Version="1"/>
  <Drawing Key="" Name="125" Version="1"/>
  <Drawing Key="" Name="126" Version="1"/>
  <Drawing Key="" Name="127" Version="1"/>
  <Drawing Key="" Name="128" Version="1"/>
  <Drawing Key="" Name="129" Version="1"/>
  <Drawing Key="" Name="130" Version="1"/>
  <Drawing Key="" Name="131" Version="1"/>
  <Drawing Key="" Name="132" Version="1"/>
  <Drawing Key="" Name="133" Version="1"/>
  <Drawing Key="" Name="134" Version="1"/>
  <Drawing Key="" Name="135" Version="1"/>
  <Drawing Key="" Name="136" Version="1"/>
  <Drawing Key="" Name="137" Version="1"/>
  <Drawing Key="" Name="138" Version="1"/>
  <Drawing Key="" Name="139" Version="1"/>
  <Drawing Key="" Name="140" Version="1"/>
  <Drawing Key="" Name="141" Version="1"/>
  <Drawing Key="" Name="142" Version="1"/>
  <Drawing Key="" Name="143" Version="1"/>
  <Drawing Key="" Name="144" Version="1"/>
  <Drawing Key="" Name="145" Version="1"/>
  <Drawing Key="" Name="146" Version="1"/>
  <Drawing Key="" Name="147" Version="1"/>
  <Drawing Key="" Name="148" Version="1"/>
  <Drawing Key="" Name="149" Version="1"/>
  <Drawing Key="" Name="150" Version="1"/>
  <Drawing Key="" Name="151" Version="1"/>
  <Drawing Key="" Name="152" Version="1"/>
  <Drawing Key="" Name="153" Version="1"/>
  <Drawing Key="" Name="154" Version="1"/>
  <Drawing Key="" Name="155" Version="1"/>
  <Drawing Key="" Name="156" Version="1"/>
  <Drawing Key="" Name="157" Version="1"/>
  <Drawing Key="" Name="158" Version="1"/>
  <Drawing Key="" Name="159" Version="1"/>
  <Drawing Key="" Name="160" Version="1"/>
  <Drawing Key="" Name="161" Version="1"/>
  <Drawing Key="" Name="162" Version="1"/>
  <Drawing Key="" Name="163" Version="1"/>
  <Drawing Key="" Name="164" Version="1"/>
  <Drawing Key="" Name="165" Version="1"/>
  <Drawing Key="" Name="166" Version="1"/>
  <Drawing Key="" Name="167" Version="1"/>
  <Drawing Key="" Name="168" Version="1"/>
  <Drawing Key="" Name="169" Version="1"/>
  <Drawing Key="" Name="170" Version="1"/>
  <Drawing Key="" Name="171" Version="1"/>
  <Drawing Key="" Name="172" Version="1"/>
  <Drawing Key="" Name="173" Version="1"/>
  <Drawing Key="" Name="174" Version="1"/>
  <Drawing Key="" Name="175" Version="1"/>
  <Drawing Key="" Name="176" Version="1"/>
  <Drawing Key="" Name="177" Version="1"/>
  <Drawing Key="" Name="178" Version="1"/>
  <Drawing Key="" Name="179" Version="1"/>
  <Drawing Key="" Name="180" Version="1"/>
  <Drawing Key="" Name="181" Version="1"/>
  <Drawing Key="" Name="182" Version="1"/>
  <Drawing Key="" Name="183" Version="1"/>
  <Drawing Key="" Name="184" Version="1"/>
  <Drawing Key="" Name="185" Version="1"/>
  <Drawing Key="" Name="186" Version="1"/>
  <Drawing Key="" Name="187" Version="1"/>
  <Drawing Key="" Name="188" Version="1"/>
  <Drawing Key="" Name="189" Version="1"/>
  <Drawing Key="" Name="190" Version="1"/>
  <Drawing Key="" Name="191" Version="1"/>
  <Drawing Key="" Name="192" Version="1"/>
  <Drawing Key="" Name="193" Version="1"/>
  <Drawing Key="" Name="194" Version="1"/>
  <Drawing Key="" Name="195" Version="1"/>
  <Drawing Key="" Name="196" Version="1"/>
  <Drawing Key="" Name="197" Version="1"/>
  <Drawing Key="" Name="198" Version="1"/>
  <Drawing Key="" Name="199" Version="1"/>
  <Drawing Key="" Name="200" Version="1"/>
  <Drawing Key="" Name="201" Version="1"/>
  <Drawing Key="" Name="202" Version="1"/>
  <Drawing Key="" Name="203" Version="1"/>
  <Drawing Key="" Name="204" Version="1"/>
  <Drawing Key="" Name="205" Version="1"/>
  <Drawing Key="" Name="206" Version="1"/>
  <Drawing Key="" Name="207" Version="1"/>
  <Drawing Key="" Name="208" Version="1"/>
  <Drawing Key="" Name="209" Version="1"/>
  <Drawing Key="" Name="210" Version="1"/>
  <Drawing Key="" Name="211" Version="1"/>
  <Drawing Key="" Name="212" Version="1"/>
 </Element>
 <Element Name="Skater" ID="66" Folder="Skater.66">
  <Drawing Key="" Name="4" Version="1"/>
  <Drawing Key="" Name="1" Version="1"/>
  <Drawing Key="" Name="2" Version="1"/>
  <Drawing Key="" Name="3" Version="1"/>
 </Element>
 <Element Name="Table" ID="67" Folder="Table.67">
  <Drawing Key="" Name="1" Version="1"/>
  <Drawing Key="" Name="3" Version="1"/>
 </Element>
</SceneVersion>
